0	291.666666666667





3600	291.683333333333





7200	291.7





10800	291.433333333333





14400	290.55





18000	290.6





21600	289.233333333333





25200	289.1





28800	289.433333333333





32400	291.183333333333





36000	293.1





39600	295.466666666667





43200	296.866666666667





46800	296.7





50400	297.416666666667





54000	298.083333333333





57600	298.333333333333





61200	298.3





64800	297.983333333333





68400	297.3





72000	296.2





75600	293.966666666667





79200	292.05





82800	290.2





86400	289.516666666667





90000	289.333333333333





93600	288.683333333333





97200	288.533333333333





100800	287.516666666667





104400	287.45





108000	287.283333333333





111600	286.833333333333





115200	287.6





118800	288.85





122400	290.866666666667





126000	292.666666666667





129600	293.566666666667





133200	294.75





136800	296.083333333333





140400	296.966666666667





144000	297.283333333333





147600	297.8





151200	297.716666666667





154800	297.3





158400	295.583333333333





162000	294.766666666667





165600	293.75





169200	292.733333333333





172800	289.733333333333





176400	288.65





180000	289.95





183600	290.166666666667





187200	290.016666666667





190800	289.05





194400	288.5





198000	288.283333333333





201600	288.716666666667





205200	290.45





208800	292.516666666667





212400	294.866666666667





216000	296.9





219600	298.266666666667





223200	299.15





226800	299.95





230400	300.85





234000	301.316666666667





237600	301.516666666667





241200	300.333333333333





244800	298.833333333333





248400	295.983333333333





252000	293.65





255600	292.833333333333





259200	291.8





262800	290.85





266400	290.266666666667





270000	289.016666666667





273600	288.733333333333





277200	288.166666666667





280800	287.766666666667





284400	287.666666666667





288000	288.716666666667





291600	292.533333333333





295200	296.7





298800	299.416666666667





302400	300.466666666667





306000	301.816666666667





309600	302.583333333333





313200	303.983333333333





316800	304.05





320400	304.616666666667





324000	304.466666666667





327600	304.416666666667





331200	301.75





334800	298.716666666667





338400	295.883333333333





342000	294.483333333333




345000	294.75
