0	0.716666666666667





3600	0.85





7200	1





10800	0.916666666666667





14400	1





18000	0.483333333333333





21600	0.6





25200	0.566666666666667





28800	0.55





32400	0.516666666666667





36000	0.75





39600	1.3





43200	1.86666666666667





46800	1.73333333333333





50400	1.65





54000	2.16666666666667





57600	2.68333333333333





61200	2.48333333333333





64800	3.05





68400	2.21666666666667





72000	1.75





75600	0.35





79200	0.366666666666667





82800	0.566666666666667





86400	0.65





90000	0.9





93600	0.516666666666667





97200	0.483333333333333





100800	0.6





104400	0.616666666666667





108000	0.566666666666667





111600	0.4





115200	0.383333333333333





118800	0.45





122400	0.416666666666667





126000	1.28333333333333





129600	1.41666666666667





133200	1.4





136800	1.5





140400	1.66666666666667





144000	1.06666666666667





147600	1.55





151200	2.01666666666667





154800	1.5





158400	1.11666666666667





162000	0.783333333333333





165600	0.933333333333333





169200	0.966666666666667





172800	0.683333333333333





176400	0.75





180000	0.716666666666667





183600	1.06666666666667





187200	0.983333333333333





190800	1.2





194400	0.9





198000	0.783333333333333





201600	0.983333333333333





205200	2.83333333333333





208800	2.53333333333333





212400	2.63333333333333





216000	2.63333333333333





219600	2.35





223200	1.36666666666667





226800	1.35





230400	1.25





234000	0.983333333333333





237600	1.43333333333333





241200	1.3





244800	0.75





248400	0.666666666666667





252000	0.816666666666667





255600	0.816666666666666





259200	0.533333333333333





262800	0.483333333333333





266400	0.666666666666667





270000	0.416666666666667





273600	0.45





277200	0.45





280800	0.55





284400	0.416666666666667





288000	0.25





291600	0.783333333333333





295200	0.8





298800	0.666666666666667





302400	1.21666666666667





306000	1.58333333333333





309600	1.66666666666667





313200	0.983333333333333





316800	1.73333333333333





320400	1.51666666666667





324000	1.36666666666667





327600	1.48333333333333





331200	1.71666666666667





334800	0.833333333333333





338400	1.5





342000	1.21666666666667




345000	1.23333333333333
